{
  "LuaSnip": { "branch": "master", "commit": "c9b9a22904c97d0eb69ccb9bab76037838326817" },
  "autoclose.nvim": { "branch": "main", "commit": "b2077aa2c83df7ebc19b2a20a3a0654b24ae9c8f" },
  "cmp-nvim-lsp": { "branch": "main", "commit": "99290b3ec1322070bcfb9e846450a46f6efa50f0" },
  "cmp_luasnip": { "branch": "master", "commit": "98d9cb5c2c38532bd9bdb481067b20fea8f32e90" },
  "harpoon": { "branch": "harpoon2", "commit": "ed1f853847ffd04b2b61c314865665e1dadf22c7" },
  "lazy.nvim": { "branch": "main", "commit": "6c3bda4aca61a13a9c63f1c1d1b16b9d3be90d7a" },
  "mason-lspconfig.nvim": { "branch": "main", "commit": "1a31f824b9cd5bc6f342fc29e9a53b60d74af245" },
  "mason.nvim": { "branch": "main", "commit": "fc98833b6da5de5a9c5b1446ac541577059555be" },
  "neodev.nvim": { "branch": "main", "commit": "46aa467dca16cf3dfe27098042402066d2ae242d" },
  "nvim-cmp": { "branch": "main", "commit": "5a11682453ac6b13dbf32cd403da4ee9c07ef1c3" },
  "nvim-lspconfig": { "branch": "master", "commit": "62c5fac4c59be9e41b92ef62f3bb0fbdae3e2d9e" },
  "nvim-treesitter": { "branch": "master", "commit": "99487eb34a397befce8182ff63347a21c5f4b881" },
  "nvim-tundra": { "branch": "main", "commit": "374ec2e2075ebe699a20d29e0c141cf5113adf0c" },
  "plenary.nvim": { "branch": "master", "commit": "857c5ac632080dba10aae49dba902ce3abf91b35" },
  "telescope.nvim": { "branch": "master", "commit": "814f102cd1da3dc78c7d2f20f2ef3ed3cdf0e6e4" }
}
