{
  "LuaSnip": { "branch": "master", "commit": "c9b9a22904c97d0eb69ccb9bab76037838326817" },
  "autoclose.nvim": { "branch": "main", "commit": "b2077aa2c83df7ebc19b2a20a3a0654b24ae9c8f" },
  "cmp-nvim-lsp": { "branch": "main", "commit": "99290b3ec1322070bcfb9e846450a46f6efa50f0" },
  "cmp_luasnip": { "branch": "master", "commit": "98d9cb5c2c38532bd9bdb481067b20fea8f32e90" },
  "harpoon": { "branch": "harpoon2", "commit": "a84ab829eaf3678b586609888ef52f7779102263" },
  "lazy.nvim": { "branch": "main", "commit": "d8f26efd456190241afd1b0f5235fe6fdba13d4a" },
  "mason-lspconfig.nvim": { "branch": "main", "commit": "e942edf5c85b6a2ab74059ea566cac5b3e1514a4" },
  "mason.nvim": { "branch": "main", "commit": "e2f7f9044ec30067bc11800a9e266664b88cda22" },
  "neodev.nvim": { "branch": "main", "commit": "46aa467dca16cf3dfe27098042402066d2ae242d" },
  "nvim-cmp": { "branch": "main", "commit": "12509903a5723a876abd65953109f926f4634c30" },
  "nvim-lspconfig": { "branch": "master", "commit": "c31abb8e7cde38b8d664338b39d9c8d51ccd28e7" },
  "nvim-treesitter": { "branch": "master", "commit": "6587a5886873cce8698a47477224c30578b33a24" },
  "nvim-tundra": { "branch": "main", "commit": "374ec2e2075ebe699a20d29e0c141cf5113adf0c" },
  "plenary.nvim": { "branch": "master", "commit": "3707cdb1e43f5cea73afb6037e6494e7ce847a66" },
  "telescope.nvim": { "branch": "master", "commit": "415af52339215926d705cccc08145f3782c4d132" }
}
